<?xml version="1.0" standalone="no"?>
<!DOCTYPE svg PUBLIC "-//W3C//DTD SVG 1.1//EN" "http://www.w3.org/Graphics/SVG/1.1/DTD/svg11.dtd">
<svg xmlns="http://www.w3.org/2000/svg">
<metadata>Generated by Fontastic.me</metadata>
<defs>
<font id="lifeline" horiz-adv-x="512">
<font-face font-family="lifeline" units-per-em="512" ascent="480" descent="-32"/>
<missing-glyph horiz-adv-x="512" />

<glyph glyph-name="sponsors" unicode="&#97;" d="M182 363c-5 0-9-3-11-7-1-4 0-8 3-11 0 0 18-19 42-41 24-22 53-46 78-58 29-13 72-21 108-26 24-3 32-3 44-4l-186-187-122 284c-2 4-5 6-9 7-4 0-7-1-10-4-2-3-2-7-1-11l128-299c2-3 5-5 8-6 3 0 7 1 10 3l213 213c3 3 4 8 2 12-1 4-5 6-9 7 0 0-29 1-65 6-36 5-78 14-102 25-20 9-50 33-73 54-23 21-41 39-41 39-2 2-5 4-7 4z m-54 74c35 0 64-28 64-64 0-35-29-64-64-64-35 0-64 29-64 64 0 36 29 64 64 64z m0-21c-24 0-43-19-43-43 0-23 19-42 43-42 24 0 43 19 43 42 0 24-19 43-43 43z m0 96c21 0 41-2 56-7 7-2 14-4 19-8 5-3 10-9 10-17 0-8-5-14-10-17-5-4-12-6-19-8-15-5-35-7-56-7-21 0-41 2-56 7-7 2-13 4-19 8-5 3-10 9-10 17 0 8 5 14 10 17 6 4 12 6 19 8 15 5 35 7 56 7z m0-21c-20 0-38-3-50-6-5-2-9-4-12-5 3-1 7-3 12-5 12-3 30-6 50-6 20 0 38 3 50 6 5 2 9 4 12 5-3 1-7 3-12 5-12 3-30 6-50 6z m245-246c-3 0-5-1-7-3l-149-149c-3-3-4-7-3-10 1-4 4-7 7-8 4-1 8 0 11 3l149 149c3 3 4 8 2 12-2 4-6 6-10 6z m42 267c-3 0-5-1-7-4 0 0-55-60-84-84-20-16-40-31-62-41-20-9-72-21-72-21-4 0-7-3-8-7-1-3-1-7 2-10 3-3 7-4 10-3 0 0 51 9 77 22 25 11 46 27 66 44 27 22 63 60 76 75 2-4 2-4 5-9 5-13 9-29 9-35-1-6-8-20-15-30-8-10-15-18-15-18-2-2-3-6-2-10 0 0 2-8 3-19 1-11 0-23-2-26-1-2-10-8-19-11-9-3-17-5-17-5-4-1-7-5-8-9 0 0-1-6-2-12-2-6-5-14-6-14-3-4-16-10-27-13-11-4-20-5-20-5-4-1-7-4-9-7-1-4 0-8 2-11 3-3 7-4 11-3 0 0 10 1 23 5 12 4 26 9 36 19 7 7 9 16 10 24 1 4 1 4 2 7 3 1 6 1 13 4 10 4 22 9 29 20 8 12 7 27 5 39-1 9-2 14-3 17 3 3 7 7 13 16 8 11 17 24 19 39 1 16-5 32-11 46-6 14-12 25-12 25-2 3-6 5-10 5z"/>
<glyph glyph-name="gallery" unicode="&#98;" d="M318 397l107 24 5-24 18 0-8 34c-1 5-5 8-10 8 0 0-1 0-2 0l-188-42z m180-221l-24 104 0-78 5-23-5-1 0-18 16 4c5 1 9 6 8 12z m-460 134l-5 23 5 1 0 18-16-4c-5-1-9-6-8-12l24-104z m156-195l-107-24-5 24-18 0 8-34c1-5 5-8 10-8 0 0 1 0 2 0l188 42-78 0z m263 265l0-248-402 0 0 248 402 0m7 17l-416 0c-6 0-10-4-10-10l0-262c0-6 4-10 10-10l416 0c6 0 10 4 10 10l0 262c0 6-4 10-10 10z m-210-123c-17 0-31-14-31-30 0-17 14-31 31-31 17 0 30 14 30 31 0 16-13 30-30 30z m94 39l-57 0-4 16c0 3-2 6-6 6l-51 0c-4 0-7-3-7-6l-4-16-60 0c-8 0-18-6-18-15l0-109c0-9 10-17 18-17l189 0c9 0 14 8 14 17l0 109c0 9-5 15-14 15z m-94-119c-28 0-50 22-50 50 0 27 22 49 50 49 27 0 49-22 49-49 0-28-22-50-49-50z"/>
<glyph glyph-name="faq" unicode="&#99;" d="M60 505l0-499 393 0 0 499z m86-91l56 0 0-132-56 0z m224-318l-228 0 0 56 228 0z m0 88l-228 0 0 56 228 0z m0 88l-104 0 0 56 104 0z m0 88l-104 0 0 56 104 0z"/>
<glyph glyph-name="testimonial" unicode="&#100;" d="M309 297l52 0c7 0 12 5 12 12l0 26c6 0 10 4 10 10l0 118c0 5-5 10-10 10l-183 0c-6 0-10-5-10-10l0-4-34 0c-6 0-12-5-12-12l0-138c0-7 6-12 12-12l128 0 40-30z m-44 39l-34-24 5 24-43 0c-6 0-10 5-10 10l0 115c0 5 4 9 10 9l177 0c5 0 10-4 10-9l0-115c0-4-3-8-7-9-1-1-2-1-3-1l-105 0z m-61-209c-10 3-21 2-28 4-1-10-19-17-40-17-22 0-40 7-41 17-6-2-18-1-28-4-5-1-28-2-40-45-2-6-2-12 1-18 10-19 64-25 108-25 43 0 97 6 107 25 3 6 3 12 2 18-13 43-36 44-41 45z m-120 49c5-12 12-24 21-33 5-5 11-9 17-11 4-2 8-3 13-3 4 0 9 1 13 3 6 2 12 6 17 12 9 8 16 20 20 32 4 1 7 8 9 16 2 9 0 17-3 18 0 3 0 5 0 7 0 33-19 52-50 54-26 1-46-9-55-26-3-6-4-14-5-21-1-5-2-9-2-13l0 0c0 0 0 0 0 0 0 0 0 0 0 0-4-1-5-9-4-19 2-8 6-15 9-16z m1 25c1 1 1 2 2 2 0 0 0 0 1 0 0 1 1 0 2 0 0 0 0 0 0 0 0 0 0 0 0 0 0 2 3 24 24 22 0 0 18-7 34-1 2 0 4 0 6 0 6 0 11-4 16-6 0 2-2 5-2 6 1 0 2-1 2-1 4-4 7-10 10-20 0 0 0 0 0 0 0 0 0 0 0 0 0 0 0 0 0 0l0 0c1 0 1 1 2 0 0 0 0 0 1 0 2-1 3-6 2-12-1-5-3-8-5-10-1-1-1-1-2-1 0 0-1 0-1 1-4-13-12-26-22-34-6-5-13-8-20-8-7 0-14 3-20 8-10 8-18 21-22 34 0-1-1-1-1-1-1 0-2 0-3 1-2 2-3 6-4 10 0 0 0 1 0 1 0 3 0 6 0 9z m400-121c-12 42-34 43-39 44 0 0-1 0-1 0-15 14-5 70-5 70 0 85-57 77-57 77-1 0-2 0-3 0 0 0-1 0-2 0 0 0-57 8-57-77 0 0 10-56-5-70-1 0-1 0-2 0-4-1-27-2-39-44-1-5-1-12 2-17 10-18 62-24 103-24 42 0 94 6 104 24 3 5 3 12 1 17z m-65 47c-1-1-1-3-2-4-6-7-20-17-38-17-17 0-32 10-37 17-1 1-2 3-2 4 0 0 0 0 0 0 1 0 1 1 2 1 0 0 1 0 1 0 3 2 8 6 8 12 0 0 0 0 0 0 5-5 10-9 16-12 4-1 8-2 13-2 4 0 8 1 12 2 6 3 11 7 16 11 0 0 0 0 0 0 1-7 8-11 11-12 0 0 0 0 0 0z m9 58c-1-4-3-8-5-9 0-1-1-1-2-1 0 0-1 0-1 1-4-13-12-26-22-33-5-5-12-7-18-7-7 0-14 2-19 7-10 7-18 20-22 33 0-1 0-1-1-1-1 0-2 0-2 1-2 2-4 5-4 9-1 6-1 11 1 12 1 0 1 0 1 0 1 0 2 0 2 0 0 0 0 0 0 0 0 2 4 29 23 27l61-31 5 4c0 0 0 0 1 0 2-1 3-6 2-12z"/>
<glyph glyph-name="story" unicode="&#101;" d="M261 384c0-45-37-82-82-82-45 0-82 37-82 82 0 45 37 82 82 82 45 0 82-37 82-82z m-215-133c0 28 23 51 51 51 29 0 51-23 51-51l0-123 123 0c23 0 41-18 41-41 0-23-18-41-41-41l-225 0 0 102z m277 0c0-28-23-51-52-51-28 0-51 23-51 51 0 28 23 51 51 51 29 0 52-23 52-51z m-154-103c0 29 23 52 51 52 28 0 51-23 51-52z m220 52l-10-21 46-31-61 0-52-102 103 0 51 102z"/>
<glyph glyph-name="event" unicode="&#102;" d="M96 512l64 0 0-64-64 0z m256 0l64 0 0-64-64 0z m128-32l-32 0 0-32c0-18-14-32-32-32l-64 0c-18 0-32 14-32 32l0 32-128 0 0-32c0-18-14-32-32-32l-64 0c-18 0-32 14-32 32l0 32-32 0c-18 0-32-14-32-32l0-416c0-18 14-32 32-32l448 0c18 0 32 14 32 32l0 416c0 18-14 32-32 32z m-256-352l-96 96 48 48 48-48 112 112 48-48z"/>
<glyph glyph-name="team" unicode="&#103;" d="M347 178c-10 17-23 28-42 34 0 0-14 7-50 7-37 0-51-7-51-7-18-7-31-17-42-34-4-6-6-19-6-26 0-2 0-4 0-6l0-12 0 8c0-13 9-24 20-24l158 0c11 0 20 11 20 24l0-8 0 12c0 2 0 4 0 6 0 7-3 20-7 26m-148 132c0-31 19-76 56-76 35 0 55 45 55 76 0 31-25 56-55 56-31 0-56-25-56-56m-6-84c-9 11-19 19-34 24 0 0-13 6-47 6-34 0-47-6-47-6-17-6-29-16-39-32-4-6-6-18-6-24 0-2 0-4 0-6l0-4c0-12 8-22 19-22l95 0c1 8 3 17 7 22 13 20 29 34 52 42z m-81 45c34 0 52 42 52 71 0 29-23 52-52 52-28 0-52-23-52-52 0-29 18-71 52-71z m204-45c9 11 20 19 34 24 0 0 13 6 47 6 34 0 48-6 48-6 17-6 29-16 39-32 4-6 6-18 6-24 0-2 0-4 0-6l0-4c0-12-8-22-19-22l-95 0c-1 8-4 17-7 22-14 20-30 34-53 42z m81 45c-33 0-52 42-52 71 0 29 24 52 52 52 29 0 52-23 52-52 0-29-18-71-52-71z"/>
<glyph glyph-name="cause" unicode="&#104;" d="M49 424l11 0 0 18 17 0 0 12-17 0 0 19-11 0 0-19-17 0 0-12 17 0z m374 13l0-67-35-46 0 76-284 0-12 16 0 69-72 0 0-73 63 0 81-108 7 6-57 77 266 0 0-73-36-48 7-6 80 106 63 0 0 71z m-337-20l0 0-61 0 0 63 61 0z m403-46l-61 0 0 0 0 61 61 0 0-61z m-191-232l0 10c2-1 4-1 6-1 8 0 15 7 15 15l-1 72c0 7-5 12-12 14l0 0-13 0c0 0 0 0 0 0l-14 0c10 5 17 15 17 27 0 17-13 30-30 30-16 0-29-13-29-30 0-12 7-22 17-27l-11 0-21 48c-3 8-12 11-20 8-7-3-11-12-8-19l29-67 0-80 0 0 1-99c0-18 8-32 19-32 10 0 18 15 18 32l-1 99 1 0 1-99c0-18 8-32 19-32 10 0 18 15 18 32l-1 99z m-12 24l0 45 2 0 1-46c0-5 2-9 6-11-5 2-8 7-9 12z m-96-18l-68 0 0 8-45 0 0-8-8 0 0 242 32 0-10 13-30 0 0-282 161 0 0 27-32 0z m190 0l-48 0 0 0-32 0 0-27 88 0 0 188-8-10z m57 261l45 0 0-12-45 0z"/>
<glyph glyph-name="form" unicode="&#105;" d="M453 502l0-491-361 0 0 491 361 0m11 10l-382 0 0-511 382 0z m-336-138l1 35c0 4 3 7 7 7l48 0c4 0 7-4 7-8l0-34m-31 97c-14 0-25-12-25-26 0-13 11-25 25-25 14 0 25 11 25 25 0 14-11 25-25 26z m0-46c-8 0-14 7-14 15l28-1c0-8-6-14-14-14z m-139 82l21 0 0-22-21 0z m224-154l193 0 0-10-193 0z m0-27l193 0 0-10-193 0z m0-27l193 0 0-10-193 0z m0-26l193 0 0-10-193 0z m0-27l193 0 0-10-193 0z m0-27l193 0 0-10-193 0z m0-26l193 0 0-11-193 0z m0-27l193 0 0-10-193 0z m0-27l193 0 0-10-193 0z m0-26l193 0 0-11-193 0z m-143 240l118 0 0-10-118 0z m0-27l118 0 0-10-118 0z m0-27l118 0 0-10-118 0z m0-249l336 0 0-10-336 0z m24 137l14-14-95-95-14 14z m22-6l-14 14 9 10 23 8-8-23z m-122-94l15-15-6-5-15 14z"/>
<glyph glyph-name="service" unicode="&#106;" d="M456 226l0 103c0 14 12 26 27 26 14 0 26-12 26-26l0-140c0-20-7-38-20-53l-87-93c-8-8-11-15-11-26l0-17-95 0 0 40c0 15-1 36 18 56l111 111c4 4 9 6 15 6 11 0 21-9 21-21 0-5-2-10-5-14l-54-57c-3-4-9-12-12-21-2-5-2-10-2-15l17 0c0 4 0 7 1 10 2 5 5 10 8 13l54 60c7 7 11 16 11 25 0 14-9 27-23 33z m-400 0l0 103c0 14-12 26-27 26-14 0-26-12-26-26l0-140c0-20 7-38 20-53l87-93c8-8 11-15 11-26l0-17 95 0 0 40c0 15 1 36-18 56l-111 111c-4 4-9 6-15 6-11 0-21-9-21-21 0-5 2-10 5-14l54-57c3-4 9-12 12-21 2-5 2-10 2-15l-17 0c0 4 0 7-1 10-2 5-5 10-8 13l-54 60c-7 7-11 16-11 25 0 14 9 27 23 33z m210 241c12 0 23 10 23 22 0 13-11 23-23 23-12 0-23-10-23-23 0-12 11-22 23-22z m-122 0c-13 0-23 10-23 22 0 13 10 23 23 23 12 0 23-10 23-23 0-12-11-22-23-22z m250-72c0-8-7-15-16-15-9 0-16 7-16 15 0 9 7 16 16 16 9 0 16-7 16-16z m7-23c-6 0-37 0-43 0 0 0-14 1-14 1l-18 62c-7 25-28 25-28 25l-58 0c0 0-21 0-28-25l-9-30-9 30c-7 25-28 25-28 25l-45 0c0 0-21 0-28-25l-18-62c-2-6 1-11 7-12 5-2 10 1 11 5l18 62 8 0-25-106 22 0 0-76c0-6 5-11 12-11 6 0 11 5 11 11l0 76 9 0 0-76c0-6 5-11 12-11 6 0 11 5 11 11l0 76 22 0-25 106 8 0 18-61c0-1 0-2 1-3 2-2 5-4 8-4 3 0 6 2 8 4 1 1 1 2 1 3l18 61 8 0c0 0 0-169 0-179 0-8 6-14 13-14 7 0 13 6 13 14 0 10 0 102 0 102l10 0c0 0 0-92 0-102 0-8 6-14 13-14 7 0 13 6 13 14 0 10 0 179 0 179l9 0 17-62c1-3 3-5 6-5 0 0 0 0 1 0 2-1 15-4 24-7 0-17 0-104 0-111 0-5 4-9 9-9 5 0 9 4 9 9 0 7 0 55 0 55l8 0c0 0 0-48 0-55 0-5 4-9 9-9 5 0 9 4 9 9 0 7 0 104 0 104l7 0c0 0 0-31 0-36 0-3 3-7 7-7 4 0 7 4 7 7 0 4 0 35 0 40 0 12-10 21-21 21z"/>
</font></defs></svg>
